%YAML 1.1
%TAG !u! tag:unity3d.com,2011:
--- !u!1 &4829327390898381596
GameObject:
  m_ObjectHideFlags: 0
  m_CorrespondingSourceObject: {fileID: 0}
  m_PrefabInstance: {fileID: 0}
  m_PrefabAsset: {fileID: 0}
  serializedVersion: 6
  m_Component:
  - component: {fileID: 6512215133888666878}
  - component: {fileID: 6235713685339712064}
  m_Layer: 0
  m_Name: cheese_02
  m_TagString: Untagged
  m_Icon: {fileID: 0}
  m_NavMeshLayer: 0
  m_StaticEditorFlags: 0
  m_IsActive: 1
--- !u!4 &6512215133888666878
Transform:
  m_ObjectHideFlags: 0
  m_CorrespondingSourceObject: {fileID: 0}
  m_PrefabInstance: {fileID: 0}
  m_PrefabAsset: {fileID: 0}
  m_GameObject: {fileID: 4829327390898381596}
  m_LocalRotation: {x: -0, y: -0, z: -0, w: 1}
  m_LocalPosition: {x: 0.076923616, y: -0.5964915, z: -9.588782}
  m_LocalScale: {x: 0.553267, y: 0.7571022, z: 0.59116197}
  m_Children: []
  m_Father: {fileID: 596209484586533901}
  m_RootOrder: 0
  m_LocalEulerAnglesHint: {x: 0, y: 0, z: 0}
--- !u!212 &6235713685339712064
SpriteRenderer:
  m_ObjectHideFlags: 0
  m_CorrespondingSourceObject: {fileID: 0}
  m_PrefabInstance: {fileID: 0}
  m_PrefabAsset: {fileID: 0}
  m_GameObject: {fileID: 4829327390898381596}
  m_Enabled: 1
  m_CastShadows: 0
  m_ReceiveShadows: 0
  m_DynamicOccludee: 1
  m_MotionVectors: 1
  m_LightProbeUsage: 1
  m_ReflectionProbeUsage: 1
  m_RenderingLayerMask: 1
  m_RendererPriority: 0
  m_Materials:
  - {fileID: 10754, guid: 0000000000000000f000000000000000, type: 0}
  m_StaticBatchInfo:
    firstSubMesh: 0
    subMeshCount: 0
  m_StaticBatchRoot: {fileID: 0}
  m_ProbeAnchor: {fileID: 0}
  m_LightProbeVolumeOverride: {fileID: 0}
  m_ScaleInLightmap: 1
  m_ReceiveGI: 1
  m_PreserveUVs: 0
  m_IgnoreNormalsForChartDetection: 0
  m_ImportantGI: 0
  m_StitchLightmapSeams: 1
  m_SelectedEditorRenderState: 0
  m_MinimumChartSize: 4
  m_AutoUVMaxDistance: 0.5
  m_AutoUVMaxAngle: 89
  m_LightmapParameters: {fileID: 0}
  m_SortingLayerID: 913391203
  m_SortingLayer: 5
  m_SortingOrder: -3
  m_Sprite: {fileID: 21300000, guid: 8377dfef6a7bb864fb9438c1b3e1a66a, type: 3}
  m_Color: {r: 1, g: 1, b: 1, a: 1}
  m_FlipX: 0
  m_FlipY: 0
  m_DrawMode: 0
  m_Size: {x: 2.56, y: 2.56}
  m_AdaptiveModeThreshold: 0.5
  m_SpriteTileMode: 0
  m_WasSpriteAssigned: 1
  m_MaskInteraction: 0
  m_SpriteSortPoint: 0
--- !u!1001 &5564245131466490776
PrefabInstance:
  m_ObjectHideFlags: 0
  serializedVersion: 2
  m_Modification:
    m_TransformParent: {fileID: 0}
    m_Modifications:
    - target: {fileID: 5007442212481271700, guid: 2832f7bdb13b86047b5242783feb7bc3,
        type: 3}
      propertyPath: m_Name
      value: TrapCell
      objectReference: {fileID: 0}
    - target: {fileID: 5007442212481271701, guid: 2832f7bdb13b86047b5242783feb7bc3,
        type: 3}
      propertyPath: m_LocalPosition.x
      value: 7.61
      objectReference: {fileID: 0}
    - target: {fileID: 5007442212481271701, guid: 2832f7bdb13b86047b5242783feb7bc3,
        type: 3}
      propertyPath: m_LocalPosition.y
      value: -2.91
      objectReference: {fileID: 0}
    - target: {fileID: 5007442212481271701, guid: 2832f7bdb13b86047b5242783feb7bc3,
        type: 3}
      propertyPath: m_LocalPosition.z
      value: 6.9998116
      objectReference: {fileID: 0}
    - target: {fileID: 5007442212481271701, guid: 2832f7bdb13b86047b5242783feb7bc3,
        type: 3}
      propertyPath: m_LocalRotation.x
      value: -0
      objectReference: {fileID: 0}
    - target: {fileID: 5007442212481271701, guid: 2832f7bdb13b86047b5242783feb7bc3,
        type: 3}
      propertyPath: m_LocalRotation.y
      value: -0
      objectReference: {fileID: 0}
    - target: {fileID: 5007442212481271701, guid: 2832f7bdb13b86047b5242783feb7bc3,
        type: 3}
      propertyPath: m_LocalRotation.z
      value: -0
      objectReference: {fileID: 0}
    - target: {fileID: 5007442212481271701, guid: 2832f7bdb13b86047b5242783feb7bc3,
        type: 3}
      propertyPath: m_LocalRotation.w
      value: 1
      objectReference: {fileID: 0}
    - target: {fileID: 5007442212481271701, guid: 2832f7bdb13b86047b5242783feb7bc3,
        type: 3}
      propertyPath: m_RootOrder
      value: 0
      objectReference: {fileID: 0}
    - target: {fileID: 5007442212481271701, guid: 2832f7bdb13b86047b5242783feb7bc3,
        type: 3}
      propertyPath: m_LocalEulerAnglesHint.x
      value: 0
      objectReference: {fileID: 0}
    - target: {fileID: 5007442212481271701, guid: 2832f7bdb13b86047b5242783feb7bc3,
        type: 3}
      propertyPath: m_LocalEulerAnglesHint.y
      value: 0
      objectReference: {fileID: 0}
    - target: {fileID: 5007442212481271701, guid: 2832f7bdb13b86047b5242783feb7bc3,
        type: 3}
      propertyPath: m_LocalEulerAnglesHint.z
      value: 0
      objectReference: {fileID: 0}
    - target: {fileID: 5007442212481271786, guid: 2832f7bdb13b86047b5242783feb7bc3,
        type: 3}
      propertyPath: m_SortingLayerID
      value: 913391203
      objectReference: {fileID: 0}
    - target: {fileID: 5007442212481271786, guid: 2832f7bdb13b86047b5242783feb7bc3,
        type: 3}
      propertyPath: m_SortingLayer
      value: 5
      objectReference: {fileID: 0}
    m_RemovedComponents: []
  m_SourcePrefab: {fileID: 100100000, guid: 2832f7bdb13b86047b5242783feb7bc3, type: 3}
--- !u!4 &596209484586533901 stripped
Transform:
  m_CorrespondingSourceObject: {fileID: 5007442212481271701, guid: 2832f7bdb13b86047b5242783feb7bc3,
    type: 3}
  m_PrefabInstance: {fileID: 5564245131466490776}
  m_PrefabAsset: {fileID: 0}
