%YAML 1.1
%TAG !u! tag:unity3d.com,2011:
--- !u!1 &6193170851642382578
GameObject:
  m_ObjectHideFlags: 0
  m_CorrespondingSourceObject: {fileID: 0}
  m_PrefabInstance: {fileID: 0}
  m_PrefabAsset: {fileID: 0}
  serializedVersion: 6
  m_Component:
  - component: {fileID: 5159575849707188192}
  - component: {fileID: 5820999090200965175}
  - component: {fileID: 6186340937069089577}
  m_Layer: 0
  m_Name: TowerFireBall
  m_TagString: Untagged
  m_Icon: {fileID: 0}
  m_NavMeshLayer: 0
  m_StaticEditorFlags: 0
  m_IsActive: 1
--- !u!4 &5159575849707188192
Transform:
  m_ObjectHideFlags: 0
  m_CorrespondingSourceObject: {fileID: 0}
  m_PrefabInstance: {fileID: 0}
  m_PrefabAsset: {fileID: 0}
  m_GameObject: {fileID: 6193170851642382578}
  m_LocalRotation: {x: 0, y: 0, z: 0, w: 1}
  m_LocalPosition: {x: 0, y: 0, z: 0}
  m_LocalScale: {x: 1, y: 1, z: 1}
  m_Children:
  - {fileID: 8748849502350631135}
  m_Father: {fileID: 0}
  m_RootOrder: 0
  m_LocalEulerAnglesHint: {x: 0, y: 0, z: 0}
--- !u!212 &5820999090200965175
SpriteRenderer:
  m_ObjectHideFlags: 0
  m_CorrespondingSourceObject: {fileID: 0}
  m_PrefabInstance: {fileID: 0}
  m_PrefabAsset: {fileID: 0}
  m_GameObject: {fileID: 6193170851642382578}
  m_Enabled: 1
  m_CastShadows: 0
  m_ReceiveShadows: 0
  m_DynamicOccludee: 1
  m_MotionVectors: 1
  m_LightProbeUsage: 1
  m_ReflectionProbeUsage: 1
  m_RenderingLayerMask: 1
  m_RendererPriority: 0
  m_Materials:
  - {fileID: 10754, guid: 0000000000000000f000000000000000, type: 0}
  m_StaticBatchInfo:
    firstSubMesh: 0
    subMeshCount: 0
  m_StaticBatchRoot: {fileID: 0}
  m_ProbeAnchor: {fileID: 0}
  m_LightProbeVolumeOverride: {fileID: 0}
  m_ScaleInLightmap: 1
  m_ReceiveGI: 1
  m_PreserveUVs: 0
  m_IgnoreNormalsForChartDetection: 0
  m_ImportantGI: 0
  m_StitchLightmapSeams: 1
  m_SelectedEditorRenderState: 0
  m_MinimumChartSize: 4
  m_AutoUVMaxDistance: 0.5
  m_AutoUVMaxAngle: 89
  m_LightmapParameters: {fileID: 0}
  m_SortingLayerID: -1884232241
  m_SortingLayer: 4
  m_SortingOrder: 0
  m_Sprite: {fileID: 21300000, guid: 160e2cee7f4e1b84981f69fadceb2223, type: 3}
  m_Color: {r: 1, g: 1, b: 1, a: 1}
  m_FlipX: 0
  m_FlipY: 0
  m_DrawMode: 0
  m_Size: {x: 2.56, y: 2.56}
  m_AdaptiveModeThreshold: 0.5
  m_SpriteTileMode: 0
  m_WasSpriteAssigned: 1
  m_MaskInteraction: 0
  m_SpriteSortPoint: 0
--- !u!50 &6186340937069089577
Rigidbody2D:
  serializedVersion: 4
  m_ObjectHideFlags: 0
  m_CorrespondingSourceObject: {fileID: 0}
  m_PrefabInstance: {fileID: 0}
  m_PrefabAsset: {fileID: 0}
  m_GameObject: {fileID: 6193170851642382578}
  m_BodyType: 0
  m_Simulated: 1
  m_UseFullKinematicContacts: 0
  m_UseAutoMass: 0
  m_Mass: 1
  m_LinearDrag: 0
  m_AngularDrag: 0.05
  m_GravityScale: 0
  m_Material: {fileID: 0}
  m_Interpolate: 0
  m_SleepingMode: 1
  m_CollisionDetection: 0
  m_Constraints: 0
--- !u!1001 &6186340936064793509
PrefabInstance:
  m_ObjectHideFlags: 0
  serializedVersion: 2
  m_Modification:
    m_TransformParent: {fileID: 5159575849707188192}
    m_Modifications:
    - target: {fileID: 3220183731397401471, guid: fda24312a2f01554cb35377eee866bfe,
        type: 3}
      propertyPath: m_Name
      value: DeathColliderTower
      objectReference: {fileID: 0}
    - target: {fileID: 3220183731397401466, guid: fda24312a2f01554cb35377eee866bfe,
        type: 3}
      propertyPath: m_LocalPosition.x
      value: -0.12791443
      objectReference: {fileID: 0}
    - target: {fileID: 3220183731397401466, guid: fda24312a2f01554cb35377eee866bfe,
        type: 3}
      propertyPath: m_LocalPosition.y
      value: -1.1476598
      objectReference: {fileID: 0}
    - target: {fileID: 3220183731397401466, guid: fda24312a2f01554cb35377eee866bfe,
        type: 3}
      propertyPath: m_LocalPosition.z
      value: -2.3906248
      objectReference: {fileID: 0}
    - target: {fileID: 3220183731397401466, guid: fda24312a2f01554cb35377eee866bfe,
        type: 3}
      propertyPath: m_LocalRotation.x
      value: -0
      objectReference: {fileID: 0}
    - target: {fileID: 3220183731397401466, guid: fda24312a2f01554cb35377eee866bfe,
        type: 3}
      propertyPath: m_LocalRotation.y
      value: -0
      objectReference: {fileID: 0}
    - target: {fileID: 3220183731397401466, guid: fda24312a2f01554cb35377eee866bfe,
        type: 3}
      propertyPath: m_LocalRotation.z
      value: -0
      objectReference: {fileID: 0}
    - target: {fileID: 3220183731397401466, guid: fda24312a2f01554cb35377eee866bfe,
        type: 3}
      propertyPath: m_LocalRotation.w
      value: 1
      objectReference: {fileID: 0}
    - target: {fileID: 3220183731397401466, guid: fda24312a2f01554cb35377eee866bfe,
        type: 3}
      propertyPath: m_RootOrder
      value: 0
      objectReference: {fileID: 0}
    - target: {fileID: 3220183731397401466, guid: fda24312a2f01554cb35377eee866bfe,
        type: 3}
      propertyPath: m_LocalEulerAnglesHint.x
      value: 0
      objectReference: {fileID: 0}
    - target: {fileID: 3220183731397401466, guid: fda24312a2f01554cb35377eee866bfe,
        type: 3}
      propertyPath: m_LocalEulerAnglesHint.y
      value: 0
      objectReference: {fileID: 0}
    - target: {fileID: 3220183731397401466, guid: fda24312a2f01554cb35377eee866bfe,
        type: 3}
      propertyPath: m_LocalEulerAnglesHint.z
      value: 0
      objectReference: {fileID: 0}
    - target: {fileID: 3220183731397401466, guid: fda24312a2f01554cb35377eee866bfe,
        type: 3}
      propertyPath: m_LocalScale.x
      value: 4.172843
      objectReference: {fileID: 0}
    - target: {fileID: 3220183731397401469, guid: fda24312a2f01554cb35377eee866bfe,
        type: 3}
      propertyPath: m_Points.Array.size
      value: 27
      objectReference: {fileID: 0}
    - target: {fileID: 3220183731397401469, guid: fda24312a2f01554cb35377eee866bfe,
        type: 3}
      propertyPath: m_Points.Array.data[0].x
      value: -0.06959776
      objectReference: {fileID: 0}
    - target: {fileID: 3220183731397401469, guid: fda24312a2f01554cb35377eee866bfe,
        type: 3}
      propertyPath: m_Points.Array.data[0].y
      value: 0.8155768
      objectReference: {fileID: 0}
    - target: {fileID: 3220183731397401469, guid: fda24312a2f01554cb35377eee866bfe,
        type: 3}
      propertyPath: m_Points.Array.data[1].x
      value: -0.090186745
      objectReference: {fileID: 0}
    - target: {fileID: 3220183731397401469, guid: fda24312a2f01554cb35377eee866bfe,
        type: 3}
      propertyPath: m_Points.Array.data[1].y
      value: 1.0081553
      objectReference: {fileID: 0}
    - target: {fileID: 3220183731397401469, guid: fda24312a2f01554cb35377eee866bfe,
        type: 3}
      propertyPath: m_Points.Array.data[2].x
      value: -0.09219427
      objectReference: {fileID: 0}
    - target: {fileID: 3220183731397401469, guid: fda24312a2f01554cb35377eee866bfe,
        type: 3}
      propertyPath: m_Points.Array.data[2].y
      value: 1.2607453
      objectReference: {fileID: 0}
    - target: {fileID: 3220183731397401469, guid: fda24312a2f01554cb35377eee866bfe,
        type: 3}
      propertyPath: m_Points.Array.data[3].x
      value: -0.069901265
      objectReference: {fileID: 0}
    - target: {fileID: 3220183731397401469, guid: fda24312a2f01554cb35377eee866bfe,
        type: 3}
      propertyPath: m_Points.Array.data[3].y
      value: 1.4018483
      objectReference: {fileID: 0}
    - target: {fileID: 3220183731397401469, guid: fda24312a2f01554cb35377eee866bfe,
        type: 3}
      propertyPath: m_Points.Array.data[4].x
      value: -0.06451313
      objectReference: {fileID: 0}
    - target: {fileID: 3220183731397401469, guid: fda24312a2f01554cb35377eee866bfe,
        type: 3}
      propertyPath: m_Points.Array.data[4].y
      value: 1.4442668
      objectReference: {fileID: 0}
    - target: {fileID: 3220183731397401469, guid: fda24312a2f01554cb35377eee866bfe,
        type: 3}
      propertyPath: m_Points.Array.data[5].x
      value: -0.0525777
      objectReference: {fileID: 0}
    - target: {fileID: 3220183731397401469, guid: fda24312a2f01554cb35377eee866bfe,
        type: 3}
      propertyPath: m_Points.Array.data[5].y
      value: 1.4916673
      objectReference: {fileID: 0}
    - target: {fileID: 3220183731397401469, guid: fda24312a2f01554cb35377eee866bfe,
        type: 3}
      propertyPath: m_Points.Array.data[6].x
      value: -0.04273755
      objectReference: {fileID: 0}
    - target: {fileID: 3220183731397401469, guid: fda24312a2f01554cb35377eee866bfe,
        type: 3}
      propertyPath: m_Points.Array.data[6].y
      value: 1.534843
      objectReference: {fileID: 0}
    - target: {fileID: 3220183731397401469, guid: fda24312a2f01554cb35377eee866bfe,
        type: 3}
      propertyPath: m_Points.Array.data[7].x
      value: -0.028368592
      objectReference: {fileID: 0}
    - target: {fileID: 3220183731397401469, guid: fda24312a2f01554cb35377eee866bfe,
        type: 3}
      propertyPath: m_Points.Array.data[7].y
      value: 1.5601282
      objectReference: {fileID: 0}
    - target: {fileID: 3220183731397401469, guid: fda24312a2f01554cb35377eee866bfe,
        type: 3}
      propertyPath: m_Points.Array.data[8].x
      value: -0.010646449
      objectReference: {fileID: 0}
    - target: {fileID: 3220183731397401469, guid: fda24312a2f01554cb35377eee866bfe,
        type: 3}
      propertyPath: m_Points.Array.data[8].y
      value: 1.5927567
      objectReference: {fileID: 0}
    - target: {fileID: 3220183731397401469, guid: fda24312a2f01554cb35377eee866bfe,
        type: 3}
      propertyPath: m_Points.Array.data[9].x
      value: 0.015303243
      objectReference: {fileID: 0}
    - target: {fileID: 3220183731397401469, guid: fda24312a2f01554cb35377eee866bfe,
        type: 3}
      propertyPath: m_Points.Array.data[9].y
      value: 1.622396
      objectReference: {fileID: 0}
    - target: {fileID: 3220183731397401469, guid: fda24312a2f01554cb35377eee866bfe,
        type: 3}
      propertyPath: m_Points.Array.data[10].x
      value: 0.030474845
      objectReference: {fileID: 0}
    - target: {fileID: 3220183731397401469, guid: fda24312a2f01554cb35377eee866bfe,
        type: 3}
      propertyPath: m_Points.Array.data[10].y
      value: 1.6216397
      objectReference: {fileID: 0}
    - target: {fileID: 3220183731397401469, guid: fda24312a2f01554cb35377eee866bfe,
        type: 3}
      propertyPath: m_Points.Array.data[11].x
      value: 0.057068117
      objectReference: {fileID: 0}
    - target: {fileID: 3220183731397401469, guid: fda24312a2f01554cb35377eee866bfe,
        type: 3}
      propertyPath: m_Points.Array.data[11].y
      value: 1.6128082
      objectReference: {fileID: 0}
    - target: {fileID: 3220183731397401469, guid: fda24312a2f01554cb35377eee866bfe,
        type: 3}
      propertyPath: m_Points.Array.data[12].x
      value: 0.07332575
      objectReference: {fileID: 0}
    - target: {fileID: 3220183731397401469, guid: fda24312a2f01554cb35377eee866bfe,
        type: 3}
      propertyPath: m_Points.Array.data[12].y
      value: 1.6030354
      objectReference: {fileID: 0}
    - target: {fileID: 3220183731397401469, guid: fda24312a2f01554cb35377eee866bfe,
        type: 3}
      propertyPath: m_Points.Array.data[13].x
      value: 0.09281042
      objectReference: {fileID: 0}
    - target: {fileID: 3220183731397401469, guid: fda24312a2f01554cb35377eee866bfe,
        type: 3}
      propertyPath: m_Points.Array.data[13].y
      value: 1.5667968
      objectReference: {fileID: 0}
    - target: {fileID: 3220183731397401469, guid: fda24312a2f01554cb35377eee866bfe,
        type: 3}
      propertyPath: m_Points.Array.data[14].x
      value: 0.12672621
      objectReference: {fileID: 0}
    - target: {fileID: 3220183731397401469, guid: fda24312a2f01554cb35377eee866bfe,
        type: 3}
      propertyPath: m_Points.Array.data[14].y
      value: 1.500637
      objectReference: {fileID: 0}
    - target: {fileID: 3220183731397401469, guid: fda24312a2f01554cb35377eee866bfe,
        type: 3}
      propertyPath: m_Points.Array.data[15].x
      value: 0.15247296
      objectReference: {fileID: 0}
    - target: {fileID: 3220183731397401469, guid: fda24312a2f01554cb35377eee866bfe,
        type: 3}
      propertyPath: m_Points.Array.data[15].y
      value: 1.3676133
      objectReference: {fileID: 0}
    - target: {fileID: 3220183731397401469, guid: fda24312a2f01554cb35377eee866bfe,
        type: 3}
      propertyPath: m_Points.Array.data[16].x
      value: 0.16741236
      objectReference: {fileID: 0}
    - target: {fileID: 3220183731397401469, guid: fda24312a2f01554cb35377eee866bfe,
        type: 3}
      propertyPath: m_Points.Array.data[16].y
      value: 1.2057669
      objectReference: {fileID: 0}
    - target: {fileID: 3220183731397401469, guid: fda24312a2f01554cb35377eee866bfe,
        type: 3}
      propertyPath: m_Points.Array.data[17].x
      value: 0.1692407
      objectReference: {fileID: 0}
    - target: {fileID: 3220183731397401469, guid: fda24312a2f01554cb35377eee866bfe,
        type: 3}
      propertyPath: m_Points.Array.data[17].y
      value: 1.013556
      objectReference: {fileID: 0}
    - target: {fileID: 3220183731397401469, guid: fda24312a2f01554cb35377eee866bfe,
        type: 3}
      propertyPath: m_Points.Array.data[18].x
      value: 0.15152405
      objectReference: {fileID: 0}
    - target: {fileID: 3220183731397401469, guid: fda24312a2f01554cb35377eee866bfe,
        type: 3}
      propertyPath: m_Points.Array.data[18].y
      value: 0.8318956
      objectReference: {fileID: 0}
    - target: {fileID: 3220183731397401469, guid: fda24312a2f01554cb35377eee866bfe,
        type: 3}
      propertyPath: m_Points.Array.data[19].x
      value: 0.14523454
      objectReference: {fileID: 0}
    - target: {fileID: 3220183731397401469, guid: fda24312a2f01554cb35377eee866bfe,
        type: 3}
      propertyPath: m_Points.Array.data[19].y
      value: 0.7905569
      objectReference: {fileID: 0}
    - target: {fileID: 3220183731397401469, guid: fda24312a2f01554cb35377eee866bfe,
        type: 3}
      propertyPath: m_Points.Array.data[20].x
      value: 0.14071122
      objectReference: {fileID: 0}
    - target: {fileID: 3220183731397401469, guid: fda24312a2f01554cb35377eee866bfe,
        type: 3}
      propertyPath: m_Points.Array.data[20].y
      value: 0.7571368
      objectReference: {fileID: 0}
    - target: {fileID: 3220183731397401469, guid: fda24312a2f01554cb35377eee866bfe,
        type: 3}
      propertyPath: m_Points.Array.data[21].x
      value: 0.118429184
      objectReference: {fileID: 0}
    - target: {fileID: 3220183731397401469, guid: fda24312a2f01554cb35377eee866bfe,
        type: 3}
      propertyPath: m_Points.Array.data[21].y
      value: 0.7050767
      objectReference: {fileID: 0}
    - target: {fileID: 3220183731397401469, guid: fda24312a2f01554cb35377eee866bfe,
        type: 3}
      propertyPath: m_Points.Array.data[22].x
      value: 0.09193648
      objectReference: {fileID: 0}
    - target: {fileID: 3220183731397401469, guid: fda24312a2f01554cb35377eee866bfe,
        type: 3}
      propertyPath: m_Points.Array.data[22].y
      value: 0.6420064
      objectReference: {fileID: 0}
    - target: {fileID: 3220183731397401469, guid: fda24312a2f01554cb35377eee866bfe,
        type: 3}
      propertyPath: m_Points.Array.data[23].x
      value: 0.03370553
      objectReference: {fileID: 0}
    - target: {fileID: 3220183731397401469, guid: fda24312a2f01554cb35377eee866bfe,
        type: 3}
      propertyPath: m_Points.Array.data[23].y
      value: 0.5924237
      objectReference: {fileID: 0}
    - target: {fileID: 3220183731397401469, guid: fda24312a2f01554cb35377eee866bfe,
        type: 3}
      propertyPath: m_Points.Array.data[24].x
      value: -0.021715248
      objectReference: {fileID: 0}
    - target: {fileID: 3220183731397401469, guid: fda24312a2f01554cb35377eee866bfe,
        type: 3}
      propertyPath: m_Points.Array.data[24].y
      value: 0.64299726
      objectReference: {fileID: 0}
    - target: {fileID: 3220183731397401469, guid: fda24312a2f01554cb35377eee866bfe,
        type: 3}
      propertyPath: m_Points.Array.data[25].x
      value: -0.04386381
      objectReference: {fileID: 0}
    - target: {fileID: 3220183731397401469, guid: fda24312a2f01554cb35377eee866bfe,
        type: 3}
      propertyPath: m_Points.Array.data[25].y
      value: 0.7035136
      objectReference: {fileID: 0}
    - target: {fileID: 3220183731397401469, guid: fda24312a2f01554cb35377eee866bfe,
        type: 3}
      propertyPath: m_Points.Array.data[26].x
      value: -0.06918456
      objectReference: {fileID: 0}
    - target: {fileID: 3220183731397401469, guid: fda24312a2f01554cb35377eee866bfe,
        type: 3}
      propertyPath: m_Points.Array.data[26].y
      value: 0.81405497
      objectReference: {fileID: 0}
    m_RemovedComponents: []
  m_SourcePrefab: {fileID: 100100000, guid: fda24312a2f01554cb35377eee866bfe, type: 3}
--- !u!4 &8748849502350631135 stripped
Transform:
  m_CorrespondingSourceObject: {fileID: 3220183731397401466, guid: fda24312a2f01554cb35377eee866bfe,
    type: 3}
  m_PrefabInstance: {fileID: 6186340936064793509}
  m_PrefabAsset: {fileID: 0}
